package hk.org.ha.model.pms.corp.vo.report

import hk.org.ha.model.pms.corp.vo.report.FmReportCriteria;
import hk.org.ha.model.pms.corp.vo.report.FmReportInfo;
import hk.org.ha.model.pms.vo.rx.CapdRxDrug;
import hk.org.ha.model.pms.udt.vetting.ActionStatus;

rule "generalDrugCnt" 
	when
		FmReportCriteria(capdRxDrug.actionStatus == ActionStatus.DispByPharm || 
						 capdRxDrug.actionStatus == ActionStatus.DispInClinic ||
						 capdRxDrug.actionStatus == ActionStatus.ContinueWithOwnStock, $fmReportInfo : fmReportInfo)
	then
		$fmReportInfo.setGeneralDrugCnt(1);
end

rule "Sfi"
	when
		FmReportCriteria(capdRxDrug.actionStatus == ActionStatus.PurchaseByPatient, $fmReportInfo : fmReportInfo)
	then
		$fmReportInfo.setSfi(1);
end

rule "SfiSn"
	when
		FmReportCriteria(capdRxDrug.actionStatus == ActionStatus.SafetyNet, $fmReportInfo : fmReportInfo)
	then
		$fmReportInfo.setSfiSn(1);
end

rule "default"		
    salience 1
	when
		fmReportCriteria : FmReportCriteria()
	then
		fmReportCriteria.getFmReportInfo().setItemCode("");
		fmReportCriteria.getFmReportInfo().setGeneralDrugCnt(0);
		fmReportCriteria.getFmReportInfo().setSpecialDrugCnt(0);
		fmReportCriteria.getFmReportInfo().setSpecialAndExistPat(0);
		fmReportCriteria.getFmReportInfo().setSpecialAndOther(0);
		fmReportCriteria.getFmReportInfo().setSpecialAndIndicated(0);
		fmReportCriteria.getFmReportInfo().setSpecialAndNonformInd(0);
		fmReportCriteria.getFmReportInfo().setSfi(0);
		fmReportCriteria.getFmReportInfo().setNamedPatient(0);
		fmReportCriteria.getFmReportInfo().setSfiSn(0);
		fmReportCriteria.getFmReportInfo().setCoInd("");
		fmReportCriteria.getFmReportInfo().setRefOrderNum(0);
		fmReportCriteria.getFmReportInfo().setRefItemNum(0);
		fmReportCriteria.getFmReportInfo().setPrescOption("");
		fmReportCriteria.getFmReportInfo().setAuthCode("");
		fmReportCriteria.getFmReportInfo().setSuInd("");
		fmReportCriteria.getFmReportInfo().setOtherMessage("");
		fmReportCriteria.getFmReportInfo().setHaSold("N");
		fmReportCriteria.getFmReportInfo().settItemcode("");
end